@startuml

scale 0.8

skinparam rectangle<<behavior>> {
	roundCorner 25
}
sprite $bProcess jar:archimate/business-process
sprite $aService jar:archimate/application-service
sprite $bService jar:archimate/business-service
sprite $aComponent jar:archimate/application-component

rectangle "Identification Service" as IdSrv <<$bService>><<behavior>> #Business
rectangle "Patient Summary Service" as PSSrv <<$bService>><<behavior>> #Business
rectangle "Laboratory Results Service" as LabSrv <<$bService>><<behavior>> #Business
rectangle "ePrescription Service" as EPSrv <<$bService>><<behavior>> #Business
rectangle "OrCD Service" as OrcdSrv <<$bService>><<behavior>> #Business
rectangle "Medical Imaging Study Service" as ImgSrv <<$bService>><<behavior>> #Business
rectangle "Hospital Discharge Report Service" as HdrSrv <<$bService>><<behavior>> #Business

url of IdSrv is [[https://webgate.ec.europa.eu/fpfis/wikis/display/EHDSI/02.+Ensure+Patient+Identification]]
url of PSSrv is [[https://webgate.ec.europa.eu/fpfis/wikis/display/EHDSI/PS+Use+Case]]
url of EPSrv is [[https://webgate.ec.europa.eu/fpfis/wikis/pages/viewpage.action?pageId=888398218]]
url of OrcdSrv is [[https://webgate.ec.europa.eu/fpfis/wikis/display/EHDSI/OrCD+Use+Case]]
url of LabSrv is [[https://webgate.ec.europa.eu/fpfis/wikis/display/EHDSI/Laboratory+Result+Report+Use+Case]]
url of HdrSrv is [[https://webgate.ec.europa.eu/fpfis/wikis/display/EHDSI/Hospital+Discharge+Report+Use+Cases]]
url of ImgSrv is [[https://webgate.ec.europa.eu/fpfis/wikis/display/EHDSI/Medical+Imaging+Studies+and+Report+Use+Case]]


IdSrv-down[hidden]->PSSrv
PSSrv-right[hidden]->EPSrv
EPSrv-right[hidden]->OrcdSrv
OrcdSrv-right[hidden]->LabSrv
LabSrv-right[hidden]->HdrSrv
HdrSrv-right[hidden]->ImgSrv

' Legend to define the sprites
legend left
<$bProcess> : Business process
<$aService> : Application service
<$bService> : Business service
endlegend
@enduml