@startuml
actor Requestor 
participant "Requesting NCP" as NCPA
participant "Responding NCP" as NCPB
participant "National Infrastructure" as CountryB

==== Find Identity by Traits ====

Requestor -[#lightgray]> Requestor : Patient Identification
Requestor -[#lightgray]> NCPA : Identification Request
NCPA -[#blue]> NCPB : Patient Search
NCPB -[#lightgray]> CountryB: Patient Search
CountryB -[#lightgray]-> NCPB : Patient Minimal Data
NCPB -[#blue]> NCPA: Patient Minimal Data
NCPA -[#lightgray]> Requestor : Patient Minimal Data
Requestor -[#lightgray]> Requestor : Patient OK

@enduml