@startuml
actor Requestor
participant "Requesting NCP" as NCPA
participant "Responding NCP" as NCPB
participant "National Infrastructure" as CountryB

==== Patient Search ====

ref over Requestor, NCPA, NCPB, CountryB  : [[sequence-pat.html Patient Search]]

==== Search and retrieve study infos and reports ====

alt Request and retrieve imaging studies

    ==== Request and retrieve imaging studies ====

    ref over Requestor, NCPA, NCPB, CountryB  :  [[sequence-img.html#request-and-retrieve-imaging-studies Request and retrieve imaging studies]]

else Get references from documents

    ==== Request and retrieve imaging reports ====

    ref over Requestor, NCPA, NCPB, CountryB  : [[sequence-docs.html 'Search and Get' or 'Fetch' Report(s)]]

    end alt

==== Get and Select Study/Series/Instance ids ====

    ref over Requestor :  [[sequence-img.html#get-and-select-studyseriesinstance-ids Get and Select Study/Series/Instance ids]]

    ==== Get images ====

    ref over Requestor, NCPA, NCPB, CountryB  :  [[sequence-img.html#get-images Get images]]



        @enduml