@startuml depl-arch-2
skinparam linetype ortho

cloud "Centralized System" {
  rectangle "Grouped Components" as Group  {
    rectangle "Imaging Study Repository" as Repository
    rectangle "Imaging Study Registry" as Registry
  }
}

cloud "Distributed Systems" {
  rectangle "Image Archive" as Archive1
  rectangle "Image Archive" as Archive2
  rectangle "Image Archive" as Archive3
}

node NCP
node NationalConnector

NationalConnector --> Archive1 
NationalConnector --> Archive2 
NationalConnector --> Archive3
Repository -down- Registry
NationalConnector --> Group
NCP --> NationalConnector
@enduml
