@startuml
participant "Requesting NCP" as NCPA
participant "Responding NCP" as NCPB
participant "National Connector" as NC
participant "Image Study Registry" as registry
participant "Image Study Repos" as repos


==== Imaging Study Search and Retrieval ====

NCPA -[#blue]> NCPB : $ncp-end-point/ImageStudy?<searchParameters>[<modifiers>]
activate NCPB
NCPB -> NC : "SearchStudy(<searchParameters>, [<modifiers>])
activate NC
NC -> registry : "SearchStudy(<searchParameters>, [<modifiers>])
activate registry
return Study List (including Study Infos)
return Study List (including Study Infos)
return Bundle of ImagingStudy

@enduml