@startuml
skinparam class {
    BackgroundColor<<LogicalModel>> #FFCC00
    BackgroundColor<<Profile>> #CCCCFF
}
skinparam linetype ortho
legend right
  | <#FFCC00> | Logical Model |
  | <#CCCCFF> | Profile |
endlegend
class "Author" <<LogicalModel>> [[StructureDefinition-Author.html]]
note right #PaleTurquoise [[ConceptMap-author2FHIR-lab-myhealtheu.html]]
Concept Map
endnote
class "Composition-lab-myhealtheu" <<Profile>> [[StructureDefinition-Composition-lab-myhealtheu.html]]
"Author" --> "Composition-lab-myhealtheu"
class "DiagnosticReport-lab-myhealtheu" <<Profile>> [[StructureDefinition-DiagnosticReport-lab-myhealtheu.html]]
"Author" --> "DiagnosticReport-lab-myhealtheu"
"Composition-lab-myhealtheu" -[hidden]-> "DiagnosticReport-lab-myhealtheu"
@enduml