@startuml
skinparam class {
    BackgroundColor<<LogicalModel>> #FFCC00
    BackgroundColor<<Profile>> #CCCCFF
}
skinparam linetype ortho
legend right
  | <#FFCC00> | Logical Model |
  | <#CCCCFF> | Profile |
endlegend
class "Payer" <<LogicalModel>> [[StructureDefinition-Payer.html]]
note right #PaleTurquoise [[ConceptMap-payer2FHIR-lab-myhealtheu.html]]
Concept Map
endnote
class "ServiceRequest-lab-myhealtheu" <<Profile>> [[StructureDefinition-ServiceRequest-lab-myhealtheu.html]]
"Payer" --> "ServiceRequest-lab-myhealtheu"
class "Coverage" <<Profile>> [[http://hl7.org/fhir/StructureDefinition/Coverage]]
"Payer" --> "Coverage"
"ServiceRequest-lab-myhealtheu" -[hidden]-> "Coverage"
class "Patient-lab-myhealtheu" <<Profile>> [[StructureDefinition-Patient-lab-myhealtheu.html]]
"Payer" --> "Patient-lab-myhealtheu"
"Coverage" -[hidden]-> "Patient-lab-myhealtheu"
@enduml