@startuml
skinparam class {
    BackgroundColor<<LogicalModel>> #FFCC00
    BackgroundColor<<Profile>> #CCCCFF
}
skinparam linetype ortho
legend right
  | <#FFCC00> | Logical Model |
  | <#CCCCFF> | Profile |
endlegend
class "SpecimenLab" <<LogicalModel>> [[StructureDefinition-SpecimenLab.html]]
note right #PaleTurquoise [[ConceptMap-specimen2FHIR-lab-myhealtheu.html]]
Concept Map
endnote
class "Specimen-lab-myhealtheu" <<Profile>> [[StructureDefinition-Specimen-lab-myhealtheu.html]]
"SpecimenLab" --> "Specimen-lab-myhealtheu"
class "BodyStructureMyHealthEu" <<Profile>> [[StructureDefinition-BodyStructureMyHealthEu.html]]
"SpecimenLab" --> "BodyStructureMyHealthEu"
"Specimen-lab-myhealtheu" -[hidden]-> "BodyStructureMyHealthEu"
@enduml